<?xml version="1.0" encoding="utf-8"?>
<!-- Generator: Adobe Illustrator 22.0.0, SVG Export Plug-In . SVG Version: 6.00 Build 0)  -->
<svg version="1.1" id="Layer_1" xmlns="http://www.w3.org/2000/svg" xmlns:xlink="http://www.w3.org/1999/xlink" x="0px" y="0px"
	 viewBox="0 0 500 500" style="enable-background:new 0 0 500 500;" xml:space="preserve">
<style type="text/css">
	.st0{fill:#6FB800;}
	.st1{fill:#E6E7E8;}
	.st2{fill:#D3D3D3;}
	.st3{fill:#E5E5E5;}
	.st4{fill:#FFFFFF;}
	.st5{fill:none;stroke:#FFFFFF;stroke-width:3;stroke-miterlimit:10;}
	.st6{clip-path:url(#SVGID_2_);}
	.st7{fill:#F2AE75;}
	.st8{fill:#D89868;}
	.st9{fill:#F15D44;}
	.st10{fill:#4F3C30;}
	.st11{clip-path:url(#SVGID_4_);}
	.st12{fill:#F15A24;}
	.st13{fill:#29ABE2;}
	.st14{clip-path:url(#SVGID_6_);}
	.st15{fill:#FFBC8A;}
	.st16{fill:#EAA77A;}
	.st17{fill:#F2F2F2;}
	.st18{fill:#FFCE99;}
	.st19{fill:#3C2417;}
	.st20{fill:#543428;}
	.st21{fill:none;stroke:#FFFFFF;stroke-width:4;stroke-miterlimit:10;}
	.st22{clip-path:url(#SVGID_8_);}
	.st23{fill:#F7C084;}
	.st24{fill:#CCCCCC;}
	.st25{clip-path:url(#SVGID_10_);}
	.st26{clip-path:url(#SVGID_12_);}
	.st27{clip-path:url(#SVGID_14_);}
	.st28{fill:#83A5B2;}
	.st29{clip-path:url(#SVGID_16_);}
	.st30{clip-path:url(#SVGID_18_);}
	.st31{fill:#DB8C00;}
	.st32{clip-path:url(#SVGID_20_);}
	.st33{fill:#AAC9D6;}
	.st34{clip-path:url(#SVGID_22_);}
	.st35{clip-path:url(#SVGID_26_);}
	.st36{clip-path:url(#SVGID_28_);}
	.st37{clip-path:url(#SVGID_32_);}
	.st38{clip-path:url(#SVGID_34_);}
	.st39{fill:#A4B6BC;}
	.st40{fill:#BFCCD1;}
	.st41{fill:#88AFBC;}
	.st42{clip-path:url(#SVGID_36_);}
	.st43{fill:#3C4375;}
	.st44{fill:#8D9AFF;}
	.st45{fill:#FBBE93;}
	.st46{clip-path:url(#SVGID_38_);}
	.st47{clip-path:url(#SVGID_40_);}
	.st48{clip-path:url(#SVGID_42_);}
	.st49{clip-path:url(#SVGID_44_);}
	.st50{clip-path:url(#SVGID_46_);}
	.st51{clip-path:url(#SVGID_48_);}
	.st52{clip-path:url(#SVGID_48_);fill:#3C2417;}
	.st53{clip-path:url(#SVGID_48_);fill:#543428;}
	.st54{clip-path:url(#SVGID_50_);}
	.st55{clip-path:url(#SVGID_50_);fill:#3C2417;}
	.st56{clip-path:url(#SVGID_50_);fill:#543428;}
</style>
<g>
	<defs>
		<circle id="SVGID_49_" cx="250" cy="250" r="242.1"/>
	</defs>
	<clipPath id="SVGID_2_">
		<use xlink:href="#SVGID_49_"  style="overflow:visible;"/>
	</clipPath>
	<g id="man_35_" class="st6">
		<g>
			<g id="man_36_">
				<polygon class="st39" points="307,399.8 193,399.8 170.4,376.3 193,361 307,361 337.1,375.3 				"/>
				<g>
					<polygon class="st15" points="313.6,369.7 294.7,361.2 294.7,321.1 207.1,321.1 207.1,361.2 186.5,369.9 201.9,478.5 
						211,478.5 211,495.7 290.7,495.7 290.7,478.5 299.8,478.5 					"/>
				</g>
				<path class="st16" d="M207,333.6c13.6,10.4,28.4,17.8,39.8,21c6.9,2,26.2,3.7,47.8-4.9l0-28.6H207V333.6z"/>
				<path class="st17" d="M419.8,426.8c-14.6-31.8-36-33.1-94.8-53.3c-2.1-0.7-28.5,19.8-75,21.1c0,0,0,0,0,0s0,0,0,0
					c-46.5-1.3-72.9-21.8-75-21.1c-58.8,20.2-80.1,21.4-94.8,53.3c-15.7,34.9-8.3,70.9-5.9,80.4H250h175.7
					C428.1,497.7,435.5,461.6,419.8,426.8z"/>
				<path class="st40" d="M187.1,507.1V376.4c0,0-93.2-5.9-118.6,70.7v60.1H187.1z"/>
				<path class="st41" d="M193,361c0,0-6.5,4-5.9,12.2v46.7l-34.1,9.6v-49.4C153,380.1,149.5,367.6,193,361z"/>
				<path class="st40" d="M431.5,507.1V447c-25.5-76.6-118.6-70.7-118.6-70.7v130.7H431.5z"/>
				<polygon class="st39" points="347,429.5 312.9,425.4 312.9,419.9 				"/>
				<path class="st41" d="M307,361c0,0,6.5,4,5.9,12.2v46.7l34.1,9.6v-49.4C347,380.1,350.5,367.6,307,361z"/>
				<polygon class="st39" points="153,429.5 187.1,425.4 187.1,419.9 				"/>
				<g id="woman_13_">
					<path class="st15" d="M343,207.9c-2-1.6-5.1-2.7-7.7-3.2l0.4-8.8c-0.5,0.2-1.5,0.7-2.8,1.3c0.4-0.4,0.7-0.8,1.1-1.2v-30.9
						c0-0.4-0.1-0.8-0.1-1.2c0-1.1-0.1-2.3-0.2-3.4c-0.1-0.6-0.1-1.3-0.2-1.9c-0.2-1.4-0.4-2.8-0.7-4.2c-0.1-0.4-0.2-0.8-0.3-1.2
						c-0.3-1.2-0.7-2.4-1.1-3.6c-0.1-0.3-0.2-0.7-0.3-1c-0.5-1.4-1.1-2.9-1.8-4.2c-0.1-0.1-0.1-0.2-0.1-0.3c0,0,0,0,0,0
						c-12.6-25.9-47-40.8-75.5-40.8c-35.5,0-80.4,23.1-80.4,61.9c0,0-1.2,31.1-1.7,30.8l0.4,8.8c-2.6,0.5-5.7,1.6-7.7,3.2
						c-3.7,2.9-6.1,7.4-6.3,12.4c0,0,6.2,34,15.3,34.4c-0.1,1.9,0.1,3.8,0.4,5.8c0,0,0,0,0,0c0,0.4,0.1,0.7,0.2,1.1
						c0,0.3,0.1,0.6,0.1,1c0.3,2.3,0.8,4.5,1.3,6.9c0,0.2,0.1,0.4,0.1,0.6c0,0,0,0,0,0c9.2,35.6,47.3,74,78.3,74
						c13.4,0,28-7.2,41.2-18.1c0,0,0,0,0,0c0.4-0.3,0.8-0.7,1.2-1c1.4-1.2,2.8-2.4,4.1-3.7c0.6-0.6,1.2-1.2,1.8-1.8
						c1.5-1.5,3-3.1,4.5-4.6c0.3-0.3,0.6-0.6,0.9-1c1.7-1.9,3.3-3.8,4.9-5.8c0.5-0.7,1-1.3,1.5-2c1.1-1.5,2.2-3,3.2-4.5
						c0.5-0.7,1-1.4,1.4-2.1c1.4-2.1,2.7-4.3,4-6.4c0.1-0.2,0.3-0.5,0.4-0.8c0.9-1.6,1.7-3.2,2.5-4.7c0,0,0,0-0.1,0
						c2.9-5.7,5.2-11.6,6.7-17.3c0,0,0,0,0,0c0-0.2,0.1-0.4,0.1-0.6c0.6-2.3,1-4.6,1.3-6.9c0.1-0.3,0.1-0.6,0.1-1
						c0-0.4,0.1-0.7,0.2-1.1c0,0,0,0,0,0c0.2-2,0.4-4,0.4-5.8c9.1-0.4,15.3-34.4,15.3-34.4C349.1,215.2,346.7,210.8,343,207.9z"/>
					<path class="st18" d="M172.8,191.6c-0.6-0.3-1,4.4-1.4,4.3l-0.8,8.9c-2.6,0.5-4.5,1.6-6.5,3.1c-3.7,2.9-6.1,7.4-6.3,12.4
						c0,0,6.2,34,15.3,34.4c-0.1,1.9,0.1,3.8,0.4,5.8c0,0,0,0,0,0c0,0.4,0.1,0.7,0.2,1.1c0,0.3,0.1,0.6,0.1,1
						c0.3,2.3,0.8,4.5,1.3,6.9c0,0.2,0.1,0.4,0.1,0.6c0,0,0,0,0,0c9.2,35.6,47.3,74,78.3,74C189.6,328.7,174.1,251.4,172.8,191.6z"
						/>
					<path class="st16" d="M294.7,326c0.4-0.3,0.8-0.7,1.2-1c1.4-1.2,2.8-2.4,4.1-3.7c0.6-0.6,1.2-1.2,1.8-1.8
						c1.5-1.5,3-3.1,4.5-4.6c0.3-0.3,0.6-0.6,0.9-1c1.7-1.9,3.3-3.8,4.9-5.8c0.5-0.7,1-1.3,1.5-2c1.1-1.5,2.2-3,3.2-4.5
						c0.5-0.7,1-1.4,1.4-2.1c1.4-2.1,2.7-4.3,4-6.4c0.1-0.2,0.3-0.5,0.4-0.8c0.9-1.6,1.7-3.2,2.5-4.7c0,0,0,0-0.1,0
						c2.9-5.7,5.2-11.6,6.7-17.3c0,0,0,0,0,0c0-0.2,0.1-0.4,0.1-0.6c0.6-2.3,1-4.6,1.3-6.9c0.1-0.3,0.1-0.6,0.1-1
						c0-0.4,0.1-0.7,0.2-1.1c0,0,0,0,0,0c0.2-2,0.4-4,0.4-5.8c9.1-0.4,15.3-34.4,15.3-34.4c-0.2-5.1-2.6-9.5-6.3-12.4
						c-2-1.6-5.1-2.7-7.7-3.2l0.4-8.8c-0.3,0.1-0.9,0.4-1.5,0.7c-1.3,59.8-16.7,132.2-80.6,147.5C266.9,344.1,281.6,336.9,294.7,326
						C294.7,325.9,294.7,326,294.7,326z"/>
				</g>
			</g>
		</g>
	</g>
	<path style="clip-path:url(#SVGID_2_);fill:#3C2417;" d="M356.8,97.4c-0.1,0-0.1,0-0.2,0c-5.9,1.1-11,1.2-15.4,0.9
		c3.5-4.3,4.7-9,5.1-11.3c0.1-0.6-0.6-1.1-1.1-0.8c-15.5,6.8-33.2-0.8-37.2-2.7c3.9-0.6,6.9-0.9,6.9-0.9c-26.3-18.1-49.5-15-49.5-15
		l12-8.2c-27.4-1.7-46.1,8.8-54.9,14.8c-1.6,0.3-3.2,0.7-4.8,1.1c1.8-3.6,5.3-9.2,5.3-9.2c-40.3,10.6-54.7,50.3-58.5,63.4
		c-15.6,19.8-11.7,43.7-5.2,76.4c1.2,6,7.8,22.5,9.8,28.1c0,0.1,2.2-32.4,2.2-32.4l19.8-55.4c0,0,29.3,7.4,63.8,10
		c34.7-0.3,64.4-5.6,64.4-5.6l16.6,57c0,0-0.9,32.2-0.9,32.1c4.8-11.2,30.4-39.7,11.5-111.6C352.4,119.6,356.8,97.4,356.8,97.4z"/>
	<path style="clip-path:url(#SVGID_2_);fill:#543428;" d="M188.7,115.3c0,0,9.2-28.5,42.4-31.5l-8,14.1c0,0,40.6-15.4,66.6-8.2
		c0,0-37,11.5-58.2,43.8c0,0-0.5-17,5.9-24.5c0,0-19.2,8.9-22.4,18.2c0,0,0.2-13.3,6.7-22.2c0,0-17.6,6.8-20.4,21.2
		c0,0-3-13.4,2.3-21.1C203.6,105.1,192.5,109.4,188.7,115.3z"/>
	<path style="clip-path:url(#SVGID_2_);fill:#543428;" d="M163.3,133.6c0,0,0.3-1.6,1.1-4.3c-15.6,19.8-11.7,43.7-5.2,76.4
		c1.2,6,7.8,22.5,9.8,28.1c0,0-24-83.8,11.4-103.8c0,0,0.4-1.1,1.1-2.9C170.5,131,163.3,133.6,163.3,133.6z"/>
</g>
</svg>
